﻿Column1,Column2
"Apple iPhone 7 (Black, 32 GB)",/apple-iphone-7-black-32-gb/p/itmen6daftcqwzeg?pid=MOBEMK62PN2HU7EE&srno=s_1_1&otracker=search&otracker1=search&lid=LSTMOBEMK62PN2HU7EEINTGNU&fm=organic&iid=c133fee3-1baa-4e22-ba36-e05e60e787f9.MOBEMK62PN2HU7EE.SEARCH&ssid=50rdp7wlhc0000001575430344540&qH=867e57bd062c7169
"Apple iPhone 7 (Gold, 32 GB)",/apple-iphone-7-gold-32-gb/p/itmen6daf99nhhjz?pid=MOBEMK62HZHC6TFU&srno=s_1_2&otracker=search&otracker1=search&lid=LSTMOBEMK62HZHC6TFUHGVQFY&fm=organic&iid=97b9dadb-a61a-4125-a5dd-f7f097303205.MOBEMK62HZHC6TFU.SEARCH&ssid=50rdp7wlhc0000001575430344540&qH=867e57bd062c7169
"Apple iPhone 7 (Rose Gold, 32 GB)",/apple-iphone-7-rose-gold-32-gb/p/itmen6dapsvxanrk?pid=MOBEMK62JSRHU85T&srno=s_1_3&otracker=search&otracker1=search&lid=LSTMOBEMK62JSRHU85TIU9DKW&fm=organic&iid=6466f3a9-dd74-4ff0-9f21-6e53e3ee347e.MOBEMK62JSRHU85T.SEARCH&ssid=50rdp7wlhc0000001575430344540&qH=867e57bd062c7169
"Apple iPhone 8 (Space Grey, 64 GB)",/apple-iphone-8-space-grey-64-gb/p/itmexrgvkkvhjhuk?pid=MOBEXRGVPHW9QZ2S&srno=s_1_4&otracker=search&otracker1=search&lid=LSTMOBEXRGVPHW9QZ2SXQ2WFU&fm=organic&iid=12e4778b-4cb1-416f-8b6d-e7cf0b46c259.MOBEXRGVPHW9QZ2S.SEARCH&ssid=50rdp7wlhc0000001575430344540&qH=867e57bd062c7169
"Apple iPhone 8 (Gold, 64 GB)",/apple-iphone-8-gold-64-gb/p/itmexrgvcbsga3zz?pid=MOBEXRGVZWHDW2RQ&srno=s_1_5&otracker=search&otracker1=search&lid=LSTMOBEXRGVZWHDW2RQXUQHVK&fm=organic&iid=c150d504-7a98-460f-8fb7-e425d7c4c4ae.MOBEXRGVZWHDW2RQ.SEARCH&ssid=50rdp7wlhc0000001575430344540&qH=867e57bd062c7169
"Apple iPhone 8 (Silver, 64 GB)",/apple-iphone-8-silver-64-gb/p/itmexrgvsw7vedwq?pid=MOBEXRGVRZFCMMYD&srno=s_1_6&otracker=search&otracker1=search&lid=LSTMOBEXRGVRZFCMMYDA2PXEI&fm=organic&iid=edc60876-3ba4-45ed-b329-0bf56e304264.MOBEXRGVRZFCMMYD.SEARCH&ssid=50rdp7wlhc0000001575430344540&qH=867e57bd062c7169
"Apple iPhone 11 (White, 128 GB)",/apple-iphone-11-white-128-gb/p/itm846a8ba21ab11?pid=MOBFKCTS4MZVJ6FJ&srno=s_1_7&otracker=search&otracker1=search&lid=LSTMOBFKCTS4MZVJ6FJPY4SUX&fm=organic&iid=a794d892-53b2-454e-964f-38f91b0c7d10.MOBFKCTS4MZVJ6FJ.SEARCH&ssid=50rdp7wlhc0000001575430344540&qH=867e57bd062c7169
"Apple iPhone 11 (White, 64 GB)",/apple-iphone-11-white-64-gb/p/itm2644c3764fc54?pid=MOBFKCTSHAWGGFHM&srno=s_1_8&otracker=search&otracker1=search&lid=LSTMOBFKCTSHAWGGFHMCPQSMX&fm=organic&iid=d4a778a3-6bcb-4e7c-9263-602ac3623448.MOBFKCTSHAWGGFHM.SEARCH&ssid=50rdp7wlhc0000001575430344540&qH=867e57bd062c7169
"Apple iPhone 11 (Black, 128 GB)",/apple-iphone-11-black-128-gb/p/itm06bac28995200?pid=MOBFKCTSYAPWYFJ5&srno=s_1_9&otracker=search&otracker1=search&lid=LSTMOBFKCTSYAPWYFJ580EM6T&fm=organic&iid=16384cbc-a9be-49b5-acc0-e94369b5a0e0.MOBFKCTSYAPWYFJ5.SEARCH&ssid=50rdp7wlhc0000001575430344540&qH=867e57bd062c7169
"Apple iPhone 11 (Black, 64 GB)",/apple-iphone-11-black-64-gb/p/itm0f37c2240b217?pid=MOBFKCTSVZAXUHGR&srno=s_1_10&otracker=search&otracker1=search&lid=LSTMOBFKCTSVZAXUHGREPBFGI&fm=organic&iid=567040e6-cbe7-4564-a6a3-688fed71afb0.MOBFKCTSVZAXUHGR.SEARCH&ssid=50rdp7wlhc0000001575430344540&qH=867e57bd062c7169
"Apple iPhone XR (Black, 64 GB)",/apple-iphone-xr-black-64-gb/p/itmf9z7zxu4uqyz2?pid=MOBF9Z7ZPHGV4GNH&srno=s_1_11&otracker=search&otracker1=search&lid=LSTMOBF9Z7ZPHGV4GNH9IFADQ&fm=organic&iid=079e6840-dbe8-44e9-9122-ef2284043f62.MOBF9Z7ZPHGV4GNH.SEARCH&ssid=50rdp7wlhc0000001575430344540&qH=867e57bd062c7169
"Apple iPhone XR (White, 64 GB)",/apple-iphone-xr-white-64-gb/p/itmf9z7zhgzkmgm3?pid=MOBF9Z7ZUYC2EYQD&srno=s_1_12&otracker=search&otracker1=search&lid=LSTMOBF9Z7ZUYC2EYQDVYJTIC&fm=organic&iid=fa2b9670-9fde-4108-8a0c-1f22c81e6f2a.MOBF9Z7ZUYC2EYQD.SEARCH&ssid=50rdp7wlhc0000001575430344540&qH=867e57bd062c7169
"Apple iPhone 6s (Space Grey, 32 GB)",/apple-iphone-6s-space-grey-32-gb/p/itmen2yyjfzpspyg?pid=MOBEN2YYKU9386TQ&srno=s_1_13&otracker=search&otracker1=search&lid=LSTMOBEN2YYKU9386TQCCN1OM&fm=organic&iid=130372a2-140e-4bdf-9981-4ddf7e8c6b10.MOBEN2YYKU9386TQ.SEARCH&ssid=50rdp7wlhc0000001575430344540&qH=867e57bd062c7169
"Apple iPhone 11 (Red, 64 GB)",/apple-iphone-11-red-64-gb/p/itmc3e231769bc6f?pid=MOBFKCTSMSYH9YY8&srno=s_1_14&otracker=search&otracker1=search&lid=LSTMOBFKCTSMSYH9YY8TPE8O9&fm=organic&iid=33568c80-463c-4c91-bd20-fee97f7929c9.MOBFKCTSMSYH9YY8.SEARCH&ssid=50rdp7wlhc0000001575430344540&qH=867e57bd062c7169
"Apple iPhone 6s (Gold, 32 GB)",/apple-iphone-6s-gold-32-gb/p/itmen2yynt6bz3gg?pid=MOBEN2YYQH8PSYXG&srno=s_1_15&otracker=search&otracker1=search&lid=LSTMOBEN2YYQH8PSYXG4TGFKX&fm=organic&iid=b9b94d78-8583-47aa-95b8-7491fcf4227c.MOBEN2YYQH8PSYXG.SEARCH&ssid=50rdp7wlhc0000001575430344540&qH=867e57bd062c7169
"Apple iPhone 11 (Purple, 64 GB)",/apple-iphone-11-purple-64-gb/p/itm0bc87f7f6d418?pid=MOBFKCTSBUSRZTQC&srno=s_1_16&otracker=search&otracker1=search&lid=LSTMOBFKCTSBUSRZTQCUVCBLN&fm=organic&iid=9bc2d848-7ce3-403e-ba61-93f2dc062928.MOBFKCTSBUSRZTQC.SEARCH&ssid=50rdp7wlhc0000001575430344540&qH=867e57bd062c7169
"Apple iPhone 11 Pro (Midnight Green, 64 GB)",/apple-iphone-11-pro-midnight-green-64-gb/p/itm471de0d2e8474?pid=MOBFKCTSN3TG3RFJ&srno=s_1_17&otracker=search&otracker1=search&lid=LSTMOBFKCTSN3TG3RFJWPVPDJ&fm=organic&iid=348e28ea-94b1-4991-a342-de2b3dd81f1b.MOBFKCTSN3TG3RFJ.SEARCH&ssid=50rdp7wlhc0000001575430344540&qH=867e57bd062c7169
"Apple iPhone 11 Pro Max (Midnight Green, 64 GB)",/apple-iphone-11-pro-max-midnight-green-64-gb/p/itmab1763b5ca244?pid=MOBFKCTSRYPAQNYT&srno=s_1_18&otracker=search&otracker1=search&lid=LSTMOBFKCTSRYPAQNYTGIQVMF&fm=organic&iid=302f6bbe-9824-4a81-8ec5-ced8a8740c4e.MOBFKCTSRYPAQNYT.SEARCH&ssid=50rdp7wlhc0000001575430344540&qH=867e57bd062c7169
"Apple iPhone XR (Yellow, 64 GB)",/apple-iphone-xr-yellow-64-gb/p/itmf9z7z76tayfaq?pid=MOBF9Z7ZUGQ6YDBH&srno=s_1_19&otracker=search&otracker1=search&lid=LSTMOBF9Z7ZUGQ6YDBH8DBQTX&fm=organic&iid=fd3a8970-9bf6-4dcd-8767-5afead066d51.MOBF9Z7ZUGQ6YDBH.SEARCH&ssid=50rdp7wlhc0000001575430344540&qH=867e57bd062c7169
"Apple iPhone 11 Pro (Gold, 64 GB)",/apple-iphone-11-pro-gold-64-gb/p/itmcf4ddab84017b?pid=MOBFKCTSMWA7BFUY&srno=s_1_20&otracker=search&otracker1=search&lid=LSTMOBFKCTSMWA7BFUYPN3KMA&fm=organic&iid=743c61cb-4a90-4213-a848-2c173d8a839b.MOBFKCTSMWA7BFUY.SEARCH&ssid=50rdp7wlhc0000001575430344540&qH=867e57bd062c7169
"Apple iPhone 11 Pro (Silver, 64 GB)",/apple-iphone-11-pro-silver-64-gb/p/itmaf0c50869f4e6?pid=MOBFKCTSZJCKYJ55&srno=s_1_21&otracker=search&otracker1=search&lid=LSTMOBFKCTSZJCKYJ55LWEH67&fm=organic&iid=7423cb39-8594-4f47-ab9e-8df48cd6e2ba.MOBFKCTSZJCKYJ55.SEARCH&ssid=50rdp7wlhc0000001575430344540&qH=867e57bd062c7169
"Apple iPhone 11 Pro Max (Space Grey, 256 GB)",/apple-iphone-11-pro-max-space-grey-256-gb/p/itm2b63a650e32f7?pid=MOBFKCTSSXTRZZJD&srno=s_1_22&otracker=search&otracker1=search&lid=LSTMOBFKCTSSXTRZZJD2T8AC4&fm=organic&iid=802b42be-15e3-4b70-8216-51d8e32d1e46.MOBFKCTSSXTRZZJD.SEARCH&ssid=50rdp7wlhc0000001575430344540&qH=867e57bd062c7169
"Apple iPhone 11 Pro (Silver, 256 GB)",/apple-iphone-11-pro-silver-256-gb/p/itm08eae2709cac6?pid=MOBFKCTST7PU7BWR&srno=s_1_23&otracker=search&otracker1=search&lid=LSTMOBFKCTST7PU7BWRAQB29Z&fm=organic&iid=3d4ad579-4879-4be4-a792-295e66c70533.MOBFKCTST7PU7BWR.SEARCH&ssid=50rdp7wlhc0000001575430344540&qH=867e57bd062c7169
"Apple iPhone 11 Pro Max (Silver, 64 GB)",/apple-iphone-11-pro-max-silver-64-gb/p/itm9cd54210a8047?pid=MOBFKCTSTETGYFKZ&srno=s_1_24&otracker=search&otracker1=search&lid=LSTMOBFKCTSTETGYFKZZHWDT6&fm=organic&iid=e0f9a44e-eb7a-41a0-8b5f-c513d3fb9172.MOBFKCTSTETGYFKZ.SEARCH&ssid=50rdp7wlhc0000001575430344540&qH=867e57bd062c7169
